%YAML 1.1
%TAG !u! tag:unity3d.com,2011:
--- !u!78 &1
TagManager:
  serializedVersion: 2
  tags:
  - Ship
  - GUIController
  - Room1
  - Room2
  - Room3
  - GameManager
  - InstructionText
  - HealthSlider
  layers:
  - Default
  - TransparentFX
  - Ignore Raycast
  - 
  - Water
  - UI
  - 
  - 
  - Background
  - 
  - 
  - 
  - 
  - 
  - Ship
  - Rooms
  - Player
  - Boundary
  - 
  - 
  - 
  - 
  - 
  - 
  - 
  - 
  - 
  - 
  - 
  - 
  - 
  - 
  m_SortingLayers:
  - name: Default
    uniqueID: 0
    locked: 0
